{
  "villagebox:cocktail:0": {
    "value": 0.025,
    "color": {
      "r": 0.49803922,
      "g": 0.24705882,
      "b": 0.05882353,
      "a": 1.0
    },
    "compostBlock": {
      "name": "minecraft:dirt",
      "meta": 0
    }
  },
  "minecraft:cookie:0": {
    "value": 0.05,
    "color": {
      "r": 0.49803922,
      "g": 0.24705882,
      "b": 0.05882353,
      "a": 1.0
    },
    "compostBlock": {
      "name": "minecraft:dirt",
      "meta": 0
    }
  },
  "villagebox:lemon:0": {
    "value": 0.05,
    "color": {
      "r": 0.49803922,
      "g": 0.24705882,
      "b": 0.05882353,
      "a": 1.0
    },
    "compostBlock": {
      "name": "minecraft:dirt",
      "meta": 0
    }
  },
  "villagebox:shrimp:0": {
    "value": 0.1,
    "color": {
      "r": 0.49803922,
      "g": 0.24705882,
      "b": 0.05882353,
      "a": 1.0
    },
    "compostBlock": {
      "name": "minecraft:dirt",
      "meta": 0
    }
  },
  "villagebox:melon:0": {
    "value": 0.1,
    "color": {
      "r": 0.49803922,
      "g": 0.24705882,
      "b": 0.05882353,
      "a": 1.0
    },
    "compostBlock": {
      "name": "minecraft:dirt",
      "meta": 0
    }
  },
  "villagebox:cooking_wine:0": {
    "value": 0.025,
    "color": {
      "r": 0.49803922,
      "g": 0.24705882,
      "b": 0.05882353,
      "a": 1.0
    },
    "compostBlock": {
      "name": "minecraft:dirt",
      "meta": 0
    }
  },
  "villagebox:hamburger:0": {
    "value": 0.2,
    "color": {
      "r": 0.49803922,
      "g": 0.24705882,
      "b": 0.05882353,
      "a": 1.0
    },
    "compostBlock": {
      "name": "minecraft:dirt",
      "meta": 0
    }
  },
  "aether_legacy:enchanted_blueberry:0": {
    "value": 0.2,
    "color": {
      "r": 0.49803922,
      "g": 0.24705882,
      "b": 0.05882353,
      "a": 1.0
    },
    "compostBlock": {
      "name": "minecraft:dirt",
      "meta": 0
    }
  },
  "villagebox:roasted_lamb:0": {
    "value": 0.15,
    "color": {
      "r": 0.49803922,
      "g": 0.24705882,
      "b": 0.05882353,
      "a": 1.0
    },
    "compostBlock": {
      "name": "minecraft:dirt",
      "meta": 0
    }
  },
  "villagebox:pork_ramen:0": {
    "value": 0.2,
    "color": {
      "r": 0.49803922,
      "g": 0.24705882,
      "b": 0.05882353,
      "a": 1.0
    },
    "compostBlock": {
      "name": "minecraft:dirt",
      "meta": 0
    }
  },
  "villagebox:tofu:0": {
    "value": 0.1,
    "color": {
      "r": 0.49803922,
      "g": 0.24705882,
      "b": 0.05882353,
      "a": 1.0
    },
    "compostBlock": {
      "name": "minecraft:dirt",
      "meta": 0
    }
  },
  "aether_legacy:candy_cane:0": {
    "value": 0.05,
    "color": {
      "r": 0.49803922,
      "g": 0.24705882,
      "b": 0.05882353,
      "a": 1.0
    },
    "compostBlock": {
      "name": "minecraft:dirt",
      "meta": 0
    }
  },
  "villagebox:creamy_corn:0": {
    "value": 0.1,
    "color": {
      "r": 0.49803922,
      "g": 0.24705882,
      "b": 0.05882353,
      "a": 1.0
    },
    "compostBlock": {
      "name": "minecraft:dirt",
      "meta": 0
    }
  },
  "villagebox:nigiri:0": {
    "value": 0.1,
    "color": {
      "r": 0.49803922,
      "g": 0.24705882,
      "b": 0.05882353,
      "a": 1.0
    },
    "compostBlock": {
      "name": "minecraft:dirt",
      "meta": 0
    }
  },
  "minecraft:cooked_rabbit:0": {
    "value": 0.125,
    "color": {
      "r": 0.49803922,
      "g": 0.24705882,
      "b": 0.05882353,
      "a": 1.0
    },
    "compostBlock": {
      "name": "minecraft:dirt",
      "meta": 0
    }
  },
  "minecraft:cooked_mutton:0": {
    "value": 0.15,
    "color": {
      "r": 0.49803922,
      "g": 0.24705882,
      "b": 0.05882353,
      "a": 1.0
    },
    "compostBlock": {
      "name": "minecraft:dirt",
      "meta": 0
    }
  },
  "minecraft:chorus_fruit:0": {
    "value": 0.1,
    "color": {
      "r": 0.49803922,
      "g": 0.24705882,
      "b": 0.05882353,
      "a": 1.0
    },
    "compostBlock": {
      "name": "minecraft:dirt",
      "meta": 0
    }
  },
  "villagebox:boiled_egg:0": {
    "value": 0.1,
    "color": {
      "r": 0.49803922,
      "g": 0.24705882,
      "b": 0.05882353,
      "a": 1.0
    },
    "compostBlock": {
      "name": "minecraft:dirt",
      "meta": 0
    }
  },
  "villagebox:beer:0": {
    "value": 0.05,
    "color": {
      "r": 0.49803922,
      "g": 0.24705882,
      "b": 0.05882353,
      "a": 1.0
    },
    "compostBlock": {
      "name": "minecraft:dirt",
      "meta": 0
    }
  },
  "villagebox:fries:0": {
    "value": 0.1,
    "color": {
      "r": 0.49803922,
      "g": 0.24705882,
      "b": 0.05882353,
      "a": 1.0
    },
    "compostBlock": {
      "name": "minecraft:dirt",
      "meta": 0
    }
  },
  "enderio:itemEnderFood:0": {
    "value": 0.25,
    "color": {
      "r": 0.49803922,
      "g": 0.24705882,
      "b": 0.05882353,
      "a": 1.0
    },
    "compostBlock": {
      "name": "minecraft:dirt",
      "meta": 0
    }
  },
  "extrautils2:magicapple:0": {
    "value": 0.1,
    "color": {
      "r": 0.49803922,
      "g": 0.24705882,
      "b": 0.05882353,
      "a": 1.0
    },
    "compostBlock": {
      "name": "minecraft:dirt",
      "meta": 0
    }
  },
  "minecraft:rabbit_stew:0": {
    "value": 0.25,
    "color": {
      "r": 0.49803922,
      "g": 0.24705882,
      "b": 0.05882353,
      "a": 1.0
    },
    "compostBlock": {
      "name": "minecraft:dirt",
      "meta": 0
    }
  },
  "villagebox:melon_icebar:0": {
    "value": 0.1,
    "color": {
      "r": 0.49803922,
      "g": 0.24705882,
      "b": 0.05882353,
      "a": 1.0
    },
    "compostBlock": {
      "name": "minecraft:dirt",
      "meta": 0
    }
  },
  "minecraft:mushroom_stew:0": {
    "value": 0.15,
    "color": {
      "r": 0.49803922,
      "g": 0.24705882,
      "b": 0.05882353,
      "a": 1.0
    },
    "compostBlock": {
      "name": "minecraft:dirt",
      "meta": 0
    }
  },
  "villagebox:banana:0": {
    "value": 0.05,
    "color": {
      "r": 0.49803922,
      "g": 0.24705882,
      "b": 0.05882353,
      "a": 1.0
    },
    "compostBlock": {
      "name": "minecraft:dirt",
      "meta": 0
    }
  },
  "villagebox:crab:0": {
    "value": 0.1,
    "color": {
      "r": 0.49803922,
      "g": 0.24705882,
      "b": 0.05882353,
      "a": 1.0
    },
    "compostBlock": {
      "name": "minecraft:dirt",
      "meta": 0
    }
  },
  "villagebox:pineapple_canday:0": {
    "value": 0.05,
    "color": {
      "r": 0.49803922,
      "g": 0.24705882,
      "b": 0.05882353,
      "a": 1.0
    },
    "compostBlock": {
      "name": "minecraft:dirt",
      "meta": 0
    }
  },
  "villagebox:grape_wine:0": {
    "value": 0.025,
    "color": {
      "r": 0.49803922,
      "g": 0.24705882,
      "b": 0.05882353,
      "a": 1.0
    },
    "compostBlock": {
      "name": "minecraft:dirt",
      "meta": 0
    }
  },
  "minecraft:golden_apple:0": {
    "value": 0.1,
    "color": {
      "r": 0.49803922,
      "g": 0.24705882,
      "b": 0.05882353,
      "a": 1.0
    },
    "compostBlock": {
      "name": "minecraft:dirt",
      "meta": 0
    }
  },
  "villagebox:congee:0": {
    "value": 0.1,
    "color": {
      "r": 0.49803922,
      "g": 0.24705882,
      "b": 0.05882353,
      "a": 1.0
    },
    "compostBlock": {
      "name": "minecraft:dirt",
      "meta": 0
    }
  },
  "exnihiloadscensio:silkwormCooked:0": {
    "value": 0.05,
    "color": {
      "r": 0.49803922,
      "g": 0.24705882,
      "b": 0.05882353,
      "a": 1.0
    },
    "compostBlock": {
      "name": "minecraft:dirt",
      "meta": 0
    }
  },
  "villagebox:apple_candy:0": {
    "value": 0.1,
    "color": {
      "r": 0.49803922,
      "g": 0.24705882,
      "b": 0.05882353,
      "a": 1.0
    },
    "compostBlock": {
      "name": "minecraft:dirt",
      "meta": 0
    }
  },
  "villagebox:canned_oranges:0": {
    "value": 0.1,
    "color": {
      "r": 0.49803922,
      "g": 0.24705882,
      "b": 0.05882353,
      "a": 1.0
    },
    "compostBlock": {
      "name": "minecraft:dirt",
      "meta": 0
    }
  },
  "minecraft:rabbit:0": {
    "value": 0.075,
    "color": {
      "r": 0.49803922,
      "g": 0.24705882,
      "b": 0.05882353,
      "a": 1.0
    },
    "compostBlock": {
      "name": "minecraft:dirt",
      "meta": 0
    }
  },
  "minecraft:golden_apple:1": {
    "value": 0.1,
    "color": {
      "r": 0.49803922,
      "g": 0.24705882,
      "b": 0.05882353,
      "a": 1.0
    },
    "compostBlock": {
      "name": "minecraft:dirt",
      "meta": 0
    }
  },
  "aether_legacy:blue_berry:0": {
    "value": 0.05,
    "color": {
      "r": 0.49803922,
      "g": 0.24705882,
      "b": 0.05882353,
      "a": 1.0
    },
    "compostBlock": {
      "name": "minecraft:dirt",
      "meta": 0
    }
  },
  "villagebox:beef_noodle_soup:0": {
    "value": 0.2,
    "color": {
      "r": 0.49803922,
      "g": 0.24705882,
      "b": 0.05882353,
      "a": 1.0
    },
    "compostBlock": {
      "name": "minecraft:dirt",
      "meta": 0
    }
  },
  "minecraft:mutton:0": {
    "value": 0.05,
    "color": {
      "r": 0.49803922,
      "g": 0.24705882,
      "b": 0.05882353,
      "a": 1.0
    },
    "compostBlock": {
      "name": "minecraft:dirt",
      "meta": 0
    }
  },
  "botania:manaCookie:0": {
    "value": 0.0,
    "color": {
      "r": 0.49803922,
      "g": 0.24705882,
      "b": 0.05882353,
      "a": 1.0
    },
    "compostBlock": {
      "name": "minecraft:dirt",
      "meta": 0
    }
  },
  "villagebox:chocolate_banana:0": {
    "value": 0.1,
    "color": {
      "r": 0.49803922,
      "g": 0.24705882,
      "b": 0.05882353,
      "a": 1.0
    },
    "compostBlock": {
      "name": "minecraft:dirt",
      "meta": 0
    }
  },
  "villagebox:boiled_fish:0": {
    "value": 0.15,
    "color": {
      "r": 0.49803922,
      "g": 0.24705882,
      "b": 0.05882353,
      "a": 1.0
    },
    "compostBlock": {
      "name": "minecraft:dirt",
      "meta": 0
    }
  },
  "villagebox:strawberry:0": {
    "value": 0.05,
    "color": {
      "r": 0.49803922,
      "g": 0.24705882,
      "b": 0.05882353,
      "a": 1.0
    },
    "compostBlock": {
      "name": "minecraft:dirt",
      "meta": 0
    }
  },
  "villagebox:honey_tea:0": {
    "value": 0.05,
    "color": {
      "r": 0.49803922,
      "g": 0.24705882,
      "b": 0.05882353,
      "a": 1.0
    },
    "compostBlock": {
      "name": "minecraft:dirt",
      "meta": 0
    }
  },
  "aether_legacy:ginger_bread_man:0": {
    "value": 0.05,
    "color": {
      "r": 0.49803922,
      "g": 0.24705882,
      "b": 0.05882353,
      "a": 1.0
    },
    "compostBlock": {
      "name": "minecraft:dirt",
      "meta": 0
    }
  },
  "villagebox:strawberry_icecream:0": {
    "value": 0.05,
    "color": {
      "r": 0.49803922,
      "g": 0.24705882,
      "b": 0.05882353,
      "a": 1.0
    },
    "compostBlock": {
      "name": "minecraft:dirt",
      "meta": 0
    }
  },
  "aether_legacy:healing_stone:0": {
    "value": 0.0,
    "color": {
      "r": 0.49803922,
      "g": 0.24705882,
      "b": 0.05882353,
      "a": 1.0
    },
    "compostBlock": {
      "name": "minecraft:dirt",
      "meta": 0
    }
  },
  "villagebox:grape:0": {
    "value": 0.1,
    "color": {
      "r": 0.49803922,
      "g": 0.24705882,
      "b": 0.05882353,
      "a": 1.0
    },
    "compostBlock": {
      "name": "minecraft:dirt",
      "meta": 0
    }
  },
  "villagebox:udon:0": {
    "value": 0.15,
    "color": {
      "r": 0.49803922,
      "g": 0.24705882,
      "b": 0.05882353,
      "a": 1.0
    },
    "compostBlock": {
      "name": "minecraft:dirt",
      "meta": 0
    }
  },
  "villagebox:vodka:0": {
    "value": 0.025,
    "color": {
      "r": 0.49803922,
      "g": 0.24705882,
      "b": 0.05882353,
      "a": 1.0
    },
    "compostBlock": {
      "name": "minecraft:dirt",
      "meta": 0
    }
  },
  "minecraft:beetroot_soup:0": {
    "value": 0.15,
    "color": {
      "r": 0.49803922,
      "g": 0.24705882,
      "b": 0.05882353,
      "a": 1.0
    },
    "compostBlock": {
      "name": "minecraft:dirt",
      "meta": 0
    }
  },
  "villagebox:mapo_tofu:0": {
    "value": 0.2,
    "color": {
      "r": 0.49803922,
      "g": 0.24705882,
      "b": 0.05882353,
      "a": 1.0
    },
    "compostBlock": {
      "name": "minecraft:dirt",
      "meta": 0
    }
  },
  "villagebox:pineapple:0": {
    "value": 0.1,
    "color": {
      "r": 0.49803922,
      "g": 0.24705882,
      "b": 0.05882353,
      "a": 1.0
    },
    "compostBlock": {
      "name": "minecraft:dirt",
      "meta": 0
    }
  },
  "villagebox:corn_chips:0": {
    "value": 0.1,
    "color": {
      "r": 0.49803922,
      "g": 0.24705882,
      "b": 0.05882353,
      "a": 1.0
    },
    "compostBlock": {
      "name": "minecraft:dirt",
      "meta": 0
    }
  },
  "aether_legacy:gummy_swet:0": {
    "value": 0.5,
    "color": {
      "r": 0.49803922,
      "g": 0.24705882,
      "b": 0.05882353,
      "a": 1.0
    },
    "compostBlock": {
      "name": "minecraft:dirt",
      "meta": 0
    }
  },
  "aether_legacy:gummy_swet:1": {
    "value": 0.5,
    "color": {
      "r": 0.49803922,
      "g": 0.24705882,
      "b": 0.05882353,
      "a": 1.0
    },
    "compostBlock": {
      "name": "minecraft:dirt",
      "meta": 0
    }
  },
  "villagebox:noodle_soup:0": {
    "value": 0.15,
    "color": {
      "r": 0.49803922,
      "g": 0.24705882,
      "b": 0.05882353,
      "a": 1.0
    },
    "compostBlock": {
      "name": "minecraft:dirt",
      "meta": 0
    }
  },
  "minecraft:golden_carrot:0": {
    "value": 0.15,
    "color": {
      "r": 0.49803922,
      "g": 0.24705882,
      "b": 0.05882353,
      "a": 1.0
    },
    "compostBlock": {
      "name": "minecraft:dirt",
      "meta": 0
    }
  },
  "aether_legacy:white_apple:0": {
    "value": 0.0,
    "color": {
      "r": 0.49803922,
      "g": 0.24705882,
      "b": 0.05882353,
      "a": 1.0
    },
    "compostBlock": {
      "name": "minecraft:dirt",
      "meta": 0
    }
  },
  "villagebox:orange:0": {
    "value": 0.1,
    "color": {
      "r": 0.49803922,
      "g": 0.24705882,
      "b": 0.05882353,
      "a": 1.0
    },
    "compostBlock": {
      "name": "minecraft:dirt",
      "meta": 0
    }
  },
  "villagebox:whisky:0": {
    "value": 0.025,
    "color": {
      "r": 0.49803922,
      "g": 0.24705882,
      "b": 0.05882353,
      "a": 1.0
    },
    "compostBlock": {
      "name": "minecraft:dirt",
      "meta": 0
    }
  },
  "villagebox:carrot_cake:0": {
    "value": 0.15,
    "color": {
      "r": 0.49803922,
      "g": 0.24705882,
      "b": 0.05882353,
      "a": 1.0
    },
    "compostBlock": {
      "name": "minecraft:dirt",
      "meta": 0
    }
  },
  "minecraft:beetroot:0": {
    "value": 0.025,
    "color": {
      "r": 0.49803922,
      "g": 0.24705882,
      "b": 0.05882353,
      "a": 1.0
    },
    "compostBlock": {
      "name": "minecraft:dirt",
      "meta": 0
    }
  },
  "villagebox:melon_icecream:0": {
    "value": 0.1,
    "color": {
      "r": 0.49803922,
      "g": 0.24705882,
      "b": 0.05882353,
      "a": 1.0
    },
    "compostBlock": {
      "name": "minecraft:dirt",
      "meta": 0
    }
  }
}