{
  "entries": [
    {
      "item": "minecraft:wool|*",
      "emc": 48
    },
    {
      "item": "projecte:item.pe_gem_armor_3|0",
      "emc": 0
    },
    {
      "item": "projecte:item.pe_gem_armor_2|0",
      "emc": 0
    },
    {
      "item": "projecte:item.pe_gem_armor_1|0",
      "emc": 0
    },
    {
      "item": "projecte:item.pe_gem_armor_0|0",
      "emc": 0
    },
    {
      "item": "immersiveengineering:metal|7",
      "emc": 0
    },
    {
      "item": "immersiveengineering:metal|37",
      "emc": 0
    },
    {
      "item": "immersiveengineering:metal|32",
      "emc": 0
    },
    {
      "item": "immersiveengineering:metal|31",
      "emc": 0
    },
    {
      "item": "immersiveengineering:metal|30",
      "emc": 0
    },
    {
      "item": "immersiveengineering:metal|39",
      "emc": 0
    },
    {
      "item": "immersiveengineering:metal|6",
      "emc": 0
    },
    {
      "item": "chisel:limestoneextra|7",
      "emc": 16
    },
    {
      "item": "chisel:basaltextra|7",
      "emc": 16
    },
    {
      "item": "chisel:marbleextra|7",
      "emc": 16
    },
    {
      "item": "quark:marble|0",
      "emc": 16
    },
    {
      "item": "quark:limestone|0",
      "emc": 16
    },
    {
      "item": "quark:basalt|0",
      "emc": 16
    },
    {
      "item": "minecraft:mossy_cobblestone|0",
      "emc": 1
    },
    {
      "item": "minecraft:stonebrick|1",
      "emc": 1
    },
    {
      "item": "akashictome:tome|0",
      "emc": 0
    },
    {
      "item": "botania:lexicon|0",
      "emc": 0
    },
    {
      "item": "immersiveengineering:tool|3",
      "emc": 0
    },
    {
      "item": "refraction:book|0",
      "emc": 0
    },
    {
      "item": "villagebox:village_book|0",
      "emc": 0
    },
    {
      "item": "quark:biotite|0",
      "emc": 8
    },
    {
      "item": "minecraft:saddle|0",
      "emc": 332
    }
  ]
}